^C:\USERS\KITSADAPON.B\DOCUMENTS\VISUAL STUDIO 2015\PROJECTS\HELLOWORLD\UNITTEST1\STDAFX.CPP
C:\USERS\KITSADAPON.B\DOCUMENTS\VISUAL STUDIO 2015\PROJECTS\HELLOWORLD\UNITTEST1\DEBUG\UNITTEST1.PCH
C:\USERS\KITSADAPON.B\DOCUMENTS\VISUAL STUDIO 2015\PROJECTS\HELLOWORLD\UNITTEST1\DEBUG\VC140.PDB
C:\USERS\KITSADAPON.B\DOCUMENTS\VISUAL STUDIO 2015\PROJECTS\HELLOWORLD\UNITTEST1\DEBUG\VC140.IDB
C:\USERS\KITSADAPON.B\DOCUMENTS\VISUAL STUDIO 2015\PROJECTS\HELLOWORLD\UNITTEST1\DEBUG\STDAFX.OBJ
^C:\USERS\KITSADAPON.B\DOCUMENTS\VISUAL STUDIO 2015\PROJECTS\HELLOWORLD\HELLOWORLD\HELLOWORLD.CPP|C:\USERS\KITSADAPON.B\DOCUMENTS\VISUAL STUDIO 2015\PROJECTS\HELLOWORLD\UNITTEST1\UNITTEST1.CPP
C:\USERS\KITSADAPON.B\DOCUMENTS\VISUAL STUDIO 2015\PROJECTS\HELLOWORLD\UNITTEST1\DEBUG\VC140.PDB
C:\USERS\KITSADAPON.B\DOCUMENTS\VISUAL STUDIO 2015\PROJECTS\HELLOWORLD\UNITTEST1\DEBUG\VC140.IDB
C:\USERS\KITSADAPON.B\DOCUMENTS\VISUAL STUDIO 2015\PROJECTS\HELLOWORLD\UNITTEST1\DEBUG\HELLOWORLD.OBJ
C:\USERS\KITSADAPON.B\DOCUMENTS\VISUAL STUDIO 2015\PROJECTS\HELLOWORLD\UNITTEST1\DEBUG\UNITTEST1.OBJ
^C:\USERS\KITSADAPON.B\DOCUMENTS\VISUAL STUDIO 2015\PROJECTS\HELLOWORLD\HELLOWORLD\HELLOWORLD.CPP
C:\USERS\KITSADAPON.B\DOCUMENTS\VISUAL STUDIO 2015\PROJECTS\HELLOWORLD\UNITTEST1\DEBUG\VC140.PDB
^C:\USERS\KITSADAPON.B\DOCUMENTS\VISUAL STUDIO 2015\PROJECTS\HELLOWORLD\UNITTEST1\UNITTEST1.CPP
C:\USERS\KITSADAPON.B\DOCUMENTS\VISUAL STUDIO 2015\PROJECTS\HELLOWORLD\UNITTEST1\DEBUG\VC140.PDB
