^C:\USERS\KITSADAPON.B\DOCUMENTS\VISUAL STUDIO 2015\PROJECTS\HELLOWORLD\UNITTEST1\DEBUG\HELLOWORLD.OBJ|C:\USERS\KITSADAPON.B\DOCUMENTS\VISUAL STUDIO 2015\PROJECTS\HELLOWORLD\UNITTEST1\DEBUG\STDAFX.OBJ|C:\USERS\KITSADAPON.B\DOCUMENTS\VISUAL STUDIO 2015\PROJECTS\HELLOWORLD\UNITTEST1\DEBUG\UNITTEST1.OBJ
C:\WINDOWS\GLOBALIZATION\SORTING\SORTDEFAULT.NLS
C:\WINDOWS\SYSTEM32\C_1252.NLS
C:\PROGRAM FILES (X86)\WINDOWS KITS\8.1\LIB\WINV6.3\UM\X86\KERNEL32.LIB
C:\PROGRAM FILES (X86)\WINDOWS KITS\8.1\LIB\WINV6.3\UM\X86\USER32.LIB
C:\PROGRAM FILES (X86)\WINDOWS KITS\8.1\LIB\WINV6.3\UM\X86\GDI32.LIB
C:\PROGRAM FILES (X86)\WINDOWS KITS\8.1\LIB\WINV6.3\UM\X86\WINSPOOL.LIB
C:\PROGRAM FILES (X86)\WINDOWS KITS\8.1\LIB\WINV6.3\UM\X86\COMDLG32.LIB
C:\PROGRAM FILES (X86)\WINDOWS KITS\8.1\LIB\WINV6.3\UM\X86\ADVAPI32.LIB
C:\PROGRAM FILES (X86)\WINDOWS KITS\8.1\LIB\WINV6.3\UM\X86\SHELL32.LIB
C:\PROGRAM FILES (X86)\WINDOWS KITS\8.1\LIB\WINV6.3\UM\X86\OLE32.LIB
C:\PROGRAM FILES (X86)\WINDOWS KITS\8.1\LIB\WINV6.3\UM\X86\OLEAUT32.LIB
C:\PROGRAM FILES (X86)\WINDOWS KITS\8.1\LIB\WINV6.3\UM\X86\UUID.LIB
C:\PROGRAM FILES (X86)\WINDOWS KITS\8.1\LIB\WINV6.3\UM\X86\ODBC32.LIB
C:\PROGRAM FILES (X86)\WINDOWS KITS\8.1\LIB\WINV6.3\UM\X86\ODBCCP32.LIB
C:\USERS\KITSADAPON.B\DOCUMENTS\VISUAL STUDIO 2015\PROJECTS\HELLOWORLD\UNITTEST1\DEBUG\HELLOWORLD.OBJ
C:\USERS\KITSADAPON.B\DOCUMENTS\VISUAL STUDIO 2015\PROJECTS\HELLOWORLD\UNITTEST1\DEBUG\STDAFX.OBJ
C:\USERS\KITSADAPON.B\DOCUMENTS\VISUAL STUDIO 2015\PROJECTS\HELLOWORLD\UNITTEST1\DEBUG\UNITTEST1.OBJ
D:\MICROSOFT VISUAL STUDIO 14.0\VC\LIB\MSVCPRTD.LIB
D:\MICROSOFT VISUAL STUDIO 14.0\VC\UNITTEST\LIB\MICROSOFT.VISUALSTUDIO.TESTTOOLS.CPPUNITTESTFRAMEWORK.LIB
D:\MICROSOFT VISUAL STUDIO 14.0\VC\LIB\MSVCRTD.LIB
D:\MICROSOFT VISUAL STUDIO 14.0\VC\LIB\OLDNAMES.LIB
D:\MICROSOFT VISUAL STUDIO 14.0\VC\LIB\VCRUNTIMED.LIB
C:\PROGRAM FILES (X86)\WINDOWS KITS\10\LIB\10.0.10240.0\UCRT\X86\UCRTD.LIB
C:\WINDOWS\SYSTEM32\TZRES.DLL
D:\MICROSOFT VISUAL STUDIO 14.0\VC\BIN\1033\LINKUI.DLL
C:\PROGRAM FILES (X86)\WINDOWS KITS\8.1\BIN\X86\RC.EXE
D:\MICROSOFT VISUAL STUDIO 14.0\VC\BIN\CVTRES.EXE
C:\WINDOWS\SYSTEM32\RSAENH.DLL
